Mechanical Systems Engineer
Chemical Engineer
Librarian
Technical Writer
Human Resources Manager
Research Assistant III
Marketing Manager
Business Systems Development Analyst
Senior Financial Analyst
Business Systems Development Analyst
VP Product Management
Occupational Therapist
Sales Representative
VP Accounting
Executive Secretary
Actuary
General Manager
Sales Associate
General Manager
Mechanical Systems Engineer
Pharmacist
Statistician I
Food Chemist
Account Executive
Administrative Officer
Food Chemist
Associate Professor
Recruiter
Statistician II
Marketing Assistant
Quality Engineer
Structural Analysis Engineer
Physical Therapy Assistant
Community Outreach Specialist
Systems Administrator II
Assistant Media Planner
Staff Accountant III
Web Designer I
Executive Secretary
Research Assistant IV
Account Representative IV
Civil Engineer
Staff Scientist
Web Developer IV
Sales Associate
Clinical Specialist
Geologist II
Senior Quality Engineer
Actuary
Dental Hygienist
Recruiter
Electrical Engineer
Software Engineer IV
Clinical Specialist
Senior Cost Accountant
Web Developer III
Actuary
Senior Sales Associate
Safety Technician I
Director of Sales
Research Associate
Web Designer II
Budget/Accounting Analyst II
VP Marketing
Speech Pathologist
VP Accounting
Accountant IV
Compensation Analyst
Recruiting Manager
Senior Developer
Cost Accountant
Business Systems Development Analyst
Automation Specialist II
Operator
Research Assistant II
Marketing Assistant
Financial Analyst
Environmental Specialist
Food Chemist
Administrative Assistant IV
Office Assistant II
Human Resources Manager
Media Manager III
Recruiting Manager
Human Resources Assistant IV
Paralegal
Safety Technician II
Administrative Assistant IV
Editor
Human Resources Manager
Accounting Assistant III
Nuclear Power Engineer
Engineer II
Nuclear Power Engineer
Staff Scientist
Database Administrator II
Automation Specialist II
VP Accounting
Chemical Engineer
Technical Writer
Software Engineer III
Internal Auditor
Human Resources Manager
Mechanical Systems Engineer
Occupational Therapist
Design Engineer
Occupational Therapist
Product Engineer
Systems Administrator I
VP Quality Control
Speech Pathologist
Quality Engineer
Engineer III
VP Quality Control
Recruiting Manager
Analyst Programmer
Food Chemist
Project Manager
Administrative Officer
Food Chemist
Structural Analysis Engineer
Staff Accountant IV
Human Resources Assistant II
Nuclear Power Engineer
Web Designer III
Civil Engineer
Engineer IV
Programmer Analyst IV
Financial Analyst
Research Associate
Assistant Media Planner
Budget/Accounting Analyst II
Sales Associate
Chemical Engineer
Programmer Analyst II
Software Engineer I
Junior Executive
Occupational Therapist
Project Manager
Research Assistant I
Analyst Programmer
General Manager
VP Quality Control
Structural Analysis Engineer
Senior Financial Analyst
Database Administrator IV
GIS Technical Architect
GIS Technical Architect
Mechanical Systems Engineer
Account Representative II
Health Coach III
Assistant Professor
Tax Accountant
Compensation Analyst
Tax Accountant
Analyst Programmer
Software Consultant
Payment Adjustment Coordinator
Social Worker
Community Outreach Specialist
Information Systems Manager
Assistant Media Planner
Nurse Practicioner
Computer Systems Analyst IV
Graphic Designer
Associate Professor
Compensation Analyst
Health Coach IV
VP Sales
Technical Writer
Software Consultant
Developer IV
Product Engineer
Mechanical Systems Engineer
Business Systems Development Analyst
VP Product Management
Pharmacist
Automation Specialist II
Teacher
VP Marketing
Help Desk Operator
VP Accounting
Associate Professor
Software Test Engineer II
Speech Pathologist
Civil Engineer
Sales Representative
Desktop Support Technician
Accounting Assistant III
Web Developer III
Programmer Analyst III
Health Coach II
Database Administrator I
Accounting Assistant I
Accountant III
Electrical Engineer
Clinical Specialist
Office Assistant IV
Engineer I
GIS Technical Architect
Business Systems Development Analyst
Social Worker
Associate Professor
Assistant Manager
Senior Cost Accountant
Internal Auditor
Tax Accountant
Assistant Professor
Account Executive
Analyst Programmer
Design Engineer
Database Administrator IV
Payment Adjustment Coordinator
Accounting Assistant IV
Assistant Media Planner
Editor
Geological Engineer
Legal Assistant
Environmental Specialist
Analyst Programmer
Database Administrator I
Data Coordiator
VP Marketing
Account Executive
Recruiting Manager
Systems Administrator IV
Analog Circuit Design manager
Recruiting Manager
Account Coordinator
Editor
Software Test Engineer IV
Design Engineer
Developer IV
Recruiting Manager
Research Assistant II
Food Chemist
Quality Control Specialist
Financial Advisor
Programmer Analyst IV
Chemical Engineer
Programmer Analyst I
VP Marketing
Operator
Account Coordinator
VP Accounting
GIS Technical Architect
Software Engineer IV
Dental Hygienist
Financial Analyst
VP Marketing
Desktop Support Technician
Structural Analysis Engineer
Community Outreach Specialist
Senior Cost Accountant
GIS Technical Architect
Director of Sales
Engineer I
Dental Hygienist
Information Systems Manager
Paralegal
Librarian
Legal Assistant
Human Resources Assistant IV
Professor
Recruiting Manager
Social Worker
Financial Analyst
Structural Engineer
Information Systems Manager
VP Marketing
Geologist II
Accountant IV
Geological Engineer
Programmer Analyst II
Database Administrator II
Account Representative II
Desktop Support Technician
Junior Executive
Occupational Therapist
Recruiter
Financial Advisor
Web Developer IV
Accounting Assistant II
VP Accounting
GIS Technical Architect
Recruiting Manager
Paralegal
Environmental Specialist
Programmer III
Paralegal
Librarian
Help Desk Operator
Account Executive
Graphic Designer
Junior Executive
Environmental Tech
GIS Technical Architect
Social Worker
Account Executive
Social Worker
Help Desk Operator
Financial Advisor
Research Associate
Senior Sales Associate
Physical Therapy Assistant
Teacher
Accounting Assistant I
Account Representative I
Assistant Professor
Legal Assistant
Senior Financial Analyst
Social Worker
Social Worker
Systems Administrator I
Recruiting Manager
Human Resources Assistant III
Senior Financial Analyst
Pharmacist
Marketing Manager
Geologist IV
Marketing Manager
Cost Accountant
Community Outreach Specialist
Programmer Analyst IV
Project Manager
GIS Technical Architect
Senior Financial Analyst
Financial Analyst
Help Desk Operator
Environmental Specialist
Analog Circuit Design manager
Programmer Analyst II
Computer Systems Analyst I
Food Chemist
Automation Specialist IV
Systems Administrator III
Web Designer III
Financial Advisor
Senior Financial Analyst
Accountant III
Nurse Practicioner
Developer II
Recruiter
Director of Sales
Health Coach I
Geological Engineer
Assistant Media Planner
Programmer Analyst IV
Nuclear Power Engineer
Environmental Tech
Financial Analyst
Recruiting Manager
Automation Specialist I
Design Engineer
Help Desk Technician
Web Developer III
Assistant Media Planner
Database Administrator IV
Desktop Support Technician
Registered Nurse
Desktop Support Technician
Desktop Support Technician
Sales Associate
Software Consultant
Marketing Manager
Editor
Engineer III
Operator
Assistant Professor
Structural Analysis Engineer
Physical Therapy Assistant
Clinical Specialist
Operator
Food Chemist
Mechanical Systems Engineer
Junior Executive
Assistant Media Planner
Computer Systems Analyst IV
Senior Financial Analyst
Environmental Specialist
Structural Engineer
Assistant Manager
Environmental Tech
Media Manager III
Director of Sales
Senior Cost Accountant
Office Assistant II
Account Coordinator
Structural Analysis Engineer
Data Coordiator
Editor
Graphic Designer
Director of Sales
Graphic Designer
Help Desk Operator
Analog Circuit Design manager
Occupational Therapist
Clinical Specialist
Health Coach IV
Assistant Manager
Operator
Computer Systems Analyst II
Graphic Designer
Recruiter
Paralegal
Food Chemist
Recruiter
VP Quality Control
Senior Sales Associate
Sales Representative
Research Associate
Paralegal
Administrative Assistant II
Geological Engineer
Information Systems Manager
Marketing Manager
VP Sales
Engineer III
Chemical Engineer
Research Assistant IV
Human Resources Manager
Software Engineer I
Design Engineer
Product Engineer
Mechanical Systems Engineer
Research Nurse
Civil Engineer
Environmental Specialist
Programmer Analyst I
Senior Sales Associate
Analyst Programmer
Cost Accountant
Technical Writer
Social Worker
Data Coordiator
Associate Professor
Quality Control Specialist
Compensation Analyst
Nurse
Desktop Support Technician
Research Associate
Research Assistant II
Geologist III
Computer Systems Analyst I
Structural Engineer
Cost Accountant
Librarian
Chief Design Engineer
Geological Engineer
Biostatistician I
Software Engineer III
Analyst Programmer
Quality Control Specialist
Teacher
Budget/Accounting Analyst I
Data Coordiator
Senior Financial Analyst
Quality Engineer
Electrical Engineer
Dental Hygienist
Chemical Engineer
Project Manager
Desktop Support Technician
Design Engineer
Office Assistant III
Tax Accountant
VP Accounting
Research Assistant IV
Nurse Practicioner
Environmental Specialist
Analog Circuit Design manager
Chemical Engineer
Safety Technician IV
Social Worker
Software Engineer IV
Librarian
Mechanical Systems Engineer
Sales Associate
Analog Circuit Design manager
Software Engineer IV
Recruiting Manager
Food Chemist
Budget/Accounting Analyst IV
Programmer Analyst II
Nuclear Power Engineer
Actuary
Data Coordiator
Software Consultant
Operator
Staff Accountant III
Marketing Assistant
Health Coach II
Accounting Assistant IV
Financial Advisor
Physical Therapy Assistant
Marketing Manager
Sales Associate
Chief Design Engineer
Pharmacist
Mechanical Systems Engineer
Senior Developer
Senior Quality Engineer
Marketing Manager
VP Marketing
VP Sales
Compensation Analyst
Database Administrator IV
Programmer Analyst II
Staff Accountant I
Budget/Accounting Analyst III
Clinical Specialist
Structural Analysis Engineer
Programmer Analyst III
Web Designer IV
Desktop Support Technician
Safety Technician IV
Developer I
VP Marketing
VP Sales
Systems Administrator II
VP Quality Control
Financial Advisor
Accountant I
Speech Pathologist
General Manager
GIS Technical Architect
Librarian
Human Resources Assistant IV
Staff Scientist
Chemical Engineer
Chemical Engineer
Recruiting Manager
Web Developer II
Registered Nurse
Librarian
Recruiting Manager
Office Assistant III
Web Designer II
Database Administrator IV
Systems Administrator II
Human Resources Manager
Environmental Tech
Mechanical Systems Engineer
Associate Professor
Recruiting Manager
Programmer Analyst II
Assistant Professor
Speech Pathologist
Assistant Professor
Nurse Practicioner
Payment Adjustment Coordinator
Human Resources Manager
Quality Control Specialist
Internal Auditor
Account Representative II
Environmental Specialist
Community Outreach Specialist
Senior Cost Accountant
Editor
VP Sales
GIS Technical Architect
Teacher
Financial Analyst
Recruiting Manager
Clinical Specialist
Engineer I
Developer I
VP Sales
Automation Specialist IV
VP Sales
Associate Professor
Account Coordinator
Administrative Assistant I
Health Coach IV
Payment Adjustment Coordinator
Assistant Media Planner
Quality Control Specialist
Nurse
Clinical Specialist
Geological Engineer
Professor
Accounting Assistant III
Assistant Manager
Computer Systems Analyst IV
Recruiting Manager
Marketing Manager
Statistician I
Product Engineer
Software Consultant
Environmental Specialist
Electrical Engineer
Administrative Assistant II
VP Quality Control
Help Desk Technician
Assistant Professor
Web Designer IV
Food Chemist
Senior Editor
Electrical Engineer
VP Product Management
Senior Editor
Recruiting Manager
Programmer Analyst III
Accountant II
Project Manager
Dental Hygienist
Database Administrator III
Structural Analysis Engineer
Professor
Software Consultant
Payment Adjustment Coordinator
Developer IV
Physical Therapy Assistant
Research Assistant I
Structural Analysis Engineer
Mechanical Systems Engineer
Community Outreach Specialist
Staff Scientist
Dental Hygienist
Civil Engineer
Physical Therapy Assistant
Sales Associate
Research Associate
Human Resources Assistant II
Chemical Engineer
Dental Hygienist
Sales Associate
Software Consultant
Internal Auditor
Marketing Assistant
Help Desk Technician
Geologist III
Staff Scientist
Assistant Manager
Programmer Analyst II
Systems Administrator II
Web Developer IV
Tax Accountant
VP Sales
Project Manager
Internal Auditor
Tax Accountant
Engineer IV
Web Developer II
Accountant II
Librarian
Account Coordinator
Senior Sales Associate
Database Administrator IV
Systems Administrator IV
Teacher
Cost Accountant
Legal Assistant
VP Product Management
Administrative Officer
Media Manager I
Associate Professor
Quality Engineer
Web Designer III
Recruiter
Registered Nurse
Teacher
Quality Control Specialist
Media Manager I
Assistant Manager
Computer Systems Analyst I
Design Engineer
Food Chemist
Sales Representative
Dental Hygienist
Legal Assistant
Electrical Engineer
Programmer Analyst I
Civil Engineer
Executive Secretary
Senior Financial Analyst
Social Worker
Marketing Assistant
Clinical Specialist
Information Systems Manager
Speech Pathologist
Professor
Geological Engineer
Nurse Practicioner
Software Test Engineer III
Senior Cost Accountant
Physical Therapy Assistant
Environmental Specialist
Senior Developer
Biostatistician IV
Quality Control Specialist
Analog Circuit Design manager
Occupational Therapist
VP Product Management
Account Coordinator
Senior Quality Engineer
Safety Technician IV
Desktop Support Technician
VP Product Management
Occupational Therapist
Quality Engineer
Assistant Manager
Software Consultant
Statistician II
Information Systems Manager
Nuclear Power Engineer
Web Designer II
Occupational Therapist
Sales Representative
Environmental Specialist
Librarian
Associate Professor
Web Designer I
Financial Analyst
Software Engineer II
Information Systems Manager
Assistant Media Planner
VP Accounting
Occupational Therapist
Developer I
Office Assistant II
Librarian
Help Desk Operator
Librarian
Account Coordinator
Product Engineer
Environmental Specialist
Junior Executive
Civil Engineer
Nurse
Assistant Manager
Quality Control Specialist
Community Outreach Specialist
Speech Pathologist
Product Engineer
Electrical Engineer
Teacher
GIS Technical Architect
Database Administrator III
Dental Hygienist
Graphic Designer
Assistant Manager
Environmental Specialist
Paralegal
Information Systems Manager
Information Systems Manager
Administrative Assistant I
Administrative Officer
Mechanical Systems Engineer
Chief Design Engineer
Nuclear Power Engineer
Social Worker
Senior Financial Analyst
Occupational Therapist
VP Accounting
Engineer II
Product Engineer
Human Resources Manager
Senior Financial Analyst
Food Chemist
Project Manager
Quality Control Specialist
Quality Engineer
Staff Accountant II
Assistant Manager
Quality Engineer
Account Coordinator
Professor
Account Coordinator
Sales Associate
VP Quality Control
VP Marketing
VP Product Management
Administrative Officer
Mechanical Systems Engineer
Senior Financial Analyst
Analyst Programmer
Structural Engineer
Environmental Specialist
Design Engineer
VP Product Management
Dental Hygienist
Actuary
Developer III
Assistant Media Planner
Statistician I
Research Assistant II
Marketing Assistant
Marketing Assistant
Dental Hygienist
Sales Associate
Staff Scientist
Software Engineer IV
Junior Executive
VP Quality Control
Nurse
Nurse Practicioner
Teacher
Engineer II
Graphic Designer
Software Consultant
Senior Developer
Nuclear Power Engineer
Executive Secretary
Research Nurse
Marketing Assistant
Human Resources Manager
Staff Scientist
Research Assistant III
Database Administrator I
Community Outreach Specialist
Editor
Engineer III
Community Outreach Specialist
Research Nurse
Compensation Analyst
Analyst Programmer
Financial Advisor
Marketing Manager
Administrative Assistant I
Desktop Support Technician
Librarian
Software Test Engineer III
Accounting Assistant I
Web Designer III
Quality Engineer
Quality Control Specialist
Food Chemist
Assistant Media Planner
Desktop Support Technician
Librarian
Web Designer IV
Nuclear Power Engineer
Software Test Engineer I
Human Resources Manager
Statistician I
Research Nurse
Help Desk Technician
Research Assistant III
Statistician I
Recruiter
Senior Quality Engineer
Social Worker
Database Administrator I
Staff Scientist
Director of Sales
Administrative Officer
Programmer II
Database Administrator III
Quality Control Specialist
Clinical Specialist
Programmer Analyst II
Sales Associate
Human Resources Manager
Nurse
Human Resources Manager
Data Coordiator
Recruiting Manager
Sales Representative
Nurse Practicioner
Software Consultant
Junior Executive
Web Developer II
Director of Sales
VP Accounting
Marketing Assistant
Physical Therapy Assistant
Senior Developer
Senior Sales Associate
Nurse
Nurse Practicioner
Desktop Support Technician
Financial Advisor
Data Coordiator
Programmer IV
Physical Therapy Assistant
VP Accounting
Programmer Analyst III
Technical Writer
Programmer II
Media Manager II
Developer III
Legal Assistant
Health Coach IV
VP Quality Control
Executive Secretary
Environmental Tech
Research Nurse
Programmer II
Food Chemist
Tax Accountant
Senior Quality Engineer
Human Resources Assistant III
Payment Adjustment Coordinator
Internal Auditor
Chemical Engineer
Electrical Engineer
Administrative Assistant II
Community Outreach Specialist
Quality Engineer
Staff Scientist
Environmental Tech
Technical Writer
Payment Adjustment Coordinator
Internal Auditor
Research Nurse
Compensation Analyst
Marketing Assistant
Sales Representative
Media Manager II
Software Test Engineer IV
Systems Administrator I
Food Chemist
Help Desk Technician
Computer Systems Analyst II
Librarian
Account Executive
Associate Professor
Nurse Practicioner
Help Desk Technician
Financial Advisor
Senior Developer
Cost Accountant
Help Desk Operator
Chemical Engineer
Sales Associate
Biostatistician IV
Office Assistant II
Senior Financial Analyst
VP Quality Control
Assistant Manager
Community Outreach Specialist
Help Desk Operator
Director of Sales
Human Resources Assistant II
Database Administrator II
Librarian
Design Engineer
Systems Administrator II
Senior Sales Associate
Paralegal
Financial Analyst
Civil Engineer
Actuary
Account Coordinator
Accounting Assistant IV
Sales Associate
Desktop Support Technician
General Manager
Senior Cost Accountant
Technical Writer
VP Quality Control
Executive Secretary
VP Quality Control
Recruiter
Marketing Assistant
Registered Nurse
Assistant Professor
Tax Accountant
Structural Analysis Engineer
Account Representative II
Junior Executive
Sales Representative
Quality Engineer
Accountant III
Assistant Professor
Legal Assistant
Director of Sales
Web Developer III
Programmer IV
Mechanical Systems Engineer
Dental Hygienist
General Manager
Financial Analyst
Marketing Manager
Nuclear Power Engineer
Research Associate
Accounting Assistant III
Community Outreach Specialist
Staff Scientist
Registered Nurse
Clinical Specialist
Automation Specialist III
Senior Financial Analyst
Director of Sales
Safety Technician IV
Marketing Assistant
Operator
Paralegal
Project Manager
Business Systems Development Analyst
Technical Writer
Structural Analysis Engineer
Research Associate
Design Engineer
Financial Advisor
Teacher
Payment Adjustment Coordinator
Paralegal
Office Assistant III
